<svg width="50" height="79" viewBox="0 0 50 79" fill="none" xmlns="http://www.w3.org/2000/svg">
<ellipse cx="2.69128" cy="2.93433" rx="2.69128" ry="2.68042" fill="#136F4F"/>
<ellipse cx="2.69128" cy="17.4768" rx="2.69128" ry="2.68042" fill="#136F4F"/>
<ellipse cx="2.69128" cy="32.0195" rx="2.69128" ry="2.68018" fill="#136F4F"/>
<ellipse cx="2.69128" cy="46.5623" rx="2.69128" ry="2.68042" fill="#136F4F"/>
<ellipse cx="2.69128" cy="61.1047" rx="2.69128" ry="2.68042" fill="#136F4F"/>
<ellipse cx="2.69128" cy="75.6477" rx="2.69128" ry="2.68042" fill="#136F4F"/>
<ellipse cx="17.3007" cy="2.93433" rx="2.69128" ry="2.68042" fill="#136F4F"/>
<ellipse cx="17.3007" cy="17.4768" rx="2.69128" ry="2.68042" fill="#136F4F"/>
<ellipse cx="17.3007" cy="32.0195" rx="2.69128" ry="2.68018" fill="#136F4F"/>
<ellipse cx="17.3007" cy="46.5623" rx="2.69128" ry="2.68042" fill="#136F4F"/>
<ellipse cx="17.3007" cy="61.1047" rx="2.69128" ry="2.68042" fill="#136F4F"/>
<ellipse cx="17.3007" cy="75.6477" rx="2.69128" ry="2.68042" fill="#136F4F"/>
<ellipse cx="31.91" cy="2.93433" rx="2.69128" ry="2.68042" fill="#136F4F"/>
<ellipse cx="31.91" cy="17.4768" rx="2.69128" ry="2.68042" fill="#136F4F"/>
<ellipse cx="31.91" cy="32.0195" rx="2.69128" ry="2.68018" fill="#136F4F"/>
<ellipse cx="31.91" cy="46.5623" rx="2.69128" ry="2.68042" fill="#136F4F"/>
<ellipse cx="31.91" cy="61.1047" rx="2.69128" ry="2.68042" fill="#136F4F"/>
<ellipse cx="31.91" cy="75.6477" rx="2.69128" ry="2.68042" fill="#136F4F"/>
<ellipse cx="46.5194" cy="2.93433" rx="2.69128" ry="2.68042" fill="#136F4F"/>
<ellipse cx="46.5194" cy="17.4768" rx="2.69128" ry="2.68042" fill="#136F4F"/>
<ellipse cx="46.5194" cy="32.0195" rx="2.69128" ry="2.68018" fill="#136F4F"/>
<ellipse cx="46.5194" cy="46.5623" rx="2.69128" ry="2.68042" fill="#136F4F"/>
<ellipse cx="46.5194" cy="61.1047" rx="2.69128" ry="2.68042" fill="#136F4F"/>
<ellipse cx="46.5194" cy="75.6477" rx="2.69128" ry="2.68042" fill="#136F4F"/>
</svg>
