<svg width="38" height="189" viewBox="0 0 38 189" fill="none" xmlns="http://www.w3.org/2000/svg">
<path d="M37.7378 186L34.8511 183.113L31.9643 186L34.8511 188.887L37.7378 186ZM1 186H0.5V186.5H1V186ZM0.5 0V5.16667H1.5V0H0.5ZM0.5 15.5V25.8333H1.5V15.5H0.5ZM0.5 36.1667V46.5H1.5V36.1667H0.5ZM0.5 56.8333V67.1667H1.5V56.8333H0.5ZM0.5 77.5V87.8333H1.5V77.5H0.5ZM0.5 98.1667V108.5H1.5V98.1667H0.5ZM0.5 118.833V129.167H1.5V118.833H0.5ZM0.5 139.5V149.833H1.5V139.5H0.5ZM0.5 160.167V170.5H1.5V160.167H0.5ZM0.5 180.833V186H1.5V180.833H0.5ZM1 186.5H5.23138V185.5H1V186.5ZM13.6941 186.5H22.1569V185.5H13.6941V186.5ZM30.6197 186.5H34.8511V185.5H30.6197V186.5Z" fill="#136F4F"/>
</svg>
