<svg width="41" height="288" viewBox="0 0 41 288" fill="none" xmlns="http://www.w3.org/2000/svg">
<path d="M40.8867 285L38 282.113L35.1132 285L38 287.887L40.8867 285ZM1 285H0.5V285.5H1V285ZM0.5 0V5.08929H1.5V0H0.5ZM0.5 15.2679V25.4464H1.5V15.2679H0.5ZM0.5 35.625V45.8036H1.5V35.625H0.5ZM0.5 55.9821V66.1607H1.5V55.9821H0.5ZM0.5 76.3393V86.5179H1.5V76.3393H0.5ZM0.5 96.6964V106.875H1.5V96.6964H0.5ZM0.5 117.054V127.232H1.5V117.054H0.5ZM0.5 137.411V147.589H1.5V137.411H0.5ZM0.5 157.768V167.946H1.5V157.768H0.5ZM0.5 178.125V188.304H1.5V178.125H0.5ZM0.5 198.482V208.661H1.5V198.482H0.5ZM0.5 218.839V229.018H1.5V218.839H0.5ZM0.5 239.196V249.375H1.5V239.196H0.5ZM0.5 259.554V269.732H1.5V259.554H0.5ZM0.5 279.911V285H1.5V279.911H0.5ZM1 285.5H5.625V284.5H1V285.5ZM14.875 285.5H24.125V284.5H14.875V285.5ZM33.375 285.5H38V284.5H33.375V285.5Z" fill="#136F4F"/>
</svg>
