<svg width="32" height="32" viewBox="0 0 32 32" fill="none" xmlns="http://www.w3.org/2000/svg">
<path d="M0 16C0 24.8366 7.16344 32 16 32C24.8366 32 32 24.8366 32 16C32 7.16344 24.8366 0 16 0C7.16344 0 0 7.16344 0 16Z" fill="#F00073"/>
<path d="M16.0031 9.2002C18.2031 9.2002 18.5031 9.2002 19.4031 9.2002C20.2031 9.2002 20.6031 9.4002 20.9031 9.5002C21.3031 9.7002 21.6031 9.8002 21.9031 10.1002C22.2031 10.4002 22.4031 10.7002 22.5031 11.1002C22.6031 11.4002 22.7031 11.8002 22.8031 12.6002C22.8031 13.5002 22.8031 13.7002 22.8031 16.0002C22.8031 18.3002 22.8031 18.5002 22.8031 19.4002C22.8031 20.2002 22.6031 20.6002 22.5031 20.9002C22.3031 21.3002 22.2031 21.6002 21.9031 21.9002C21.6031 22.2002 21.3031 22.4002 20.9031 22.5002C20.6031 22.6002 20.2031 22.7002 19.4031 22.8002C18.5031 22.8002 18.3031 22.8002 16.0031 22.8002C13.7031 22.8002 13.5031 22.8002 12.6031 22.8002C11.8031 22.8002 11.4031 22.6002 11.1031 22.5002C10.7031 22.3002 10.4031 22.2002 10.1031 21.9002C9.80313 21.6002 9.60313 21.3002 9.50313 20.9002C9.40313 20.6002 9.30313 20.2002 9.20312 19.4002C9.20312 18.5002 9.20312 18.3002 9.20312 16.0002C9.20312 13.7002 9.20312 13.5002 9.20312 12.6002C9.20312 11.8002 9.40313 11.4002 9.50313 11.1002C9.70313 10.7002 9.80313 10.4002 10.1031 10.1002C10.4031 9.8002 10.7031 9.6002 11.1031 9.5002C11.4031 9.4002 11.8031 9.3002 12.6031 9.2002C13.5031 9.2002 13.8031 9.2002 16.0031 9.2002ZM16.0031 7.7002C13.7031 7.7002 13.5031 7.7002 12.6031 7.7002C11.7031 7.7002 11.1031 7.9002 10.6031 8.1002C10.1031 8.3002 9.60313 8.6002 9.10313 9.1002C8.60313 9.6002 8.40313 10.0002 8.10313 10.6002C7.90313 11.1002 7.80313 11.7002 7.70312 12.6002C7.70312 13.5002 7.70312 13.8002 7.70312 16.0002C7.70312 18.3002 7.70312 18.5002 7.70312 19.4002C7.70312 20.3002 7.90313 20.9002 8.10313 21.4002C8.30313 21.9002 8.60313 22.4002 9.10313 22.9002C9.60313 23.4002 10.0031 23.6002 10.6031 23.9002C11.1031 24.1002 11.7031 24.2002 12.6031 24.3002C13.5031 24.3002 13.8031 24.3002 16.0031 24.3002C18.2031 24.3002 18.5031 24.3002 19.4031 24.3002C20.3031 24.3002 20.9031 24.1002 21.4031 23.9002C21.9031 23.7002 22.4031 23.4002 22.9031 22.9002C23.4031 22.4002 23.6031 22.0002 23.9031 21.4002C24.1031 20.9002 24.2031 20.3002 24.3031 19.4002C24.3031 18.5002 24.3031 18.2002 24.3031 16.0002C24.3031 13.8002 24.3031 13.5002 24.3031 12.6002C24.3031 11.7002 24.1031 11.1002 23.9031 10.6002C23.7031 10.1002 23.4031 9.6002 22.9031 9.1002C22.4031 8.6002 22.0031 8.4002 21.4031 8.1002C20.9031 7.9002 20.3031 7.8002 19.4031 7.7002C18.5031 7.7002 18.3031 7.7002 16.0031 7.7002Z" fill="white"/>
<path d="M16.0031 11.7002C13.6031 11.7002 11.7031 13.6002 11.7031 16.0002C11.7031 18.4002 13.6031 20.3002 16.0031 20.3002C18.4031 20.3002 20.3031 18.4002 20.3031 16.0002C20.3031 13.6002 18.4031 11.7002 16.0031 11.7002ZM16.0031 18.8002C14.5031 18.8002 13.2031 17.6002 13.2031 16.0002C13.2031 14.5002 14.4031 13.2002 16.0031 13.2002C17.5031 13.2002 18.8031 14.4002 18.8031 16.0002C18.8031 17.5002 17.5031 18.8002 16.0031 18.8002Z" fill="white"/>
<path d="M20.4031 12.6002C20.9554 12.6002 21.4031 12.1525 21.4031 11.6002C21.4031 11.0479 20.9554 10.6002 20.4031 10.6002C19.8508 10.6002 19.4031 11.0479 19.4031 11.6002C19.4031 12.1525 19.8508 12.6002 20.4031 12.6002Z" fill="white"/>
</svg>
