<svg width="190" height="40" viewBox="0 0 190 40" fill="none" xmlns="http://www.w3.org/2000/svg">
<path opacity="0.7" d="M4.02557 36H1.25568V26.5455H4.19176C5.09351 26.5455 5.86447 26.7332 6.50462 27.1087C7.14785 27.4841 7.64027 28.0227 7.98189 28.7244C8.32351 29.4261 8.49432 30.2679 8.49432 31.2496C8.49432 32.2406 8.31889 33.0916 7.96804 33.8026C7.62027 34.5104 7.11245 35.0536 6.4446 35.4322C5.77983 35.8107 4.97348 36 4.02557 36ZM2.11896 35.2244H3.97479C4.78729 35.2244 5.46745 35.0644 6.01527 34.7443C6.56309 34.4242 6.97396 33.9672 7.24787 33.3732C7.52178 32.7792 7.65874 32.0714 7.65874 31.2496C7.65566 30.4341 7.52024 29.7324 7.25249 29.1445C6.98781 28.5567 6.59387 28.1058 6.07067 27.7919C5.55054 27.478 4.90732 27.321 4.14098 27.321H2.11896V35.2244ZM11.45 26.5455V36H10.5867V26.5455H11.45ZM20.5052 29.5C20.4191 29.1861 20.2929 28.8922 20.1267 28.6183C19.9605 28.3413 19.7543 28.0997 19.5081 27.8935C19.2649 27.6842 18.9833 27.5211 18.6633 27.4041C18.3463 27.2872 17.9923 27.2287 17.6015 27.2287C16.9859 27.2287 16.435 27.3887 15.9488 27.7088C15.4625 28.0289 15.0778 28.4905 14.7947 29.0938C14.5146 29.697 14.3746 30.4233 14.3746 31.2727C14.3746 32.1191 14.5161 32.8439 14.7993 33.4471C15.0824 34.0503 15.4702 34.5135 15.9626 34.8366C16.4581 35.1567 17.0244 35.3168 17.6615 35.3168C18.2432 35.3168 18.7571 35.1875 19.2034 34.929C19.6497 34.6705 19.9974 34.3011 20.2467 33.821C20.4991 33.3409 20.6222 32.77 20.616 32.1083L20.893 32.196H17.8646V31.4205H21.4562V32.196C21.4562 33.0024 21.2931 33.6995 20.9669 34.2873C20.6407 34.8751 20.1929 35.3291 19.6235 35.6491C19.0541 35.9692 18.4001 36.1293 17.6615 36.1293C16.8367 36.1293 16.115 35.9308 15.4964 35.5337C14.8778 35.1336 14.3961 34.5704 14.0514 33.8441C13.7098 33.1147 13.539 32.2576 13.539 31.2727C13.539 30.531 13.6375 29.8616 13.8344 29.2646C14.0314 28.6675 14.3099 28.1566 14.67 27.7319C15.0332 27.3072 15.4625 26.9825 15.958 26.7578C16.4535 26.5301 17.0013 26.4162 17.6015 26.4162C18.1185 26.4162 18.5909 26.4978 19.0187 26.6609C19.4496 26.824 19.8282 27.0487 20.1544 27.3349C20.4837 27.618 20.753 27.9458 20.9623 28.3182C21.1746 28.6875 21.3177 29.0814 21.3916 29.5H20.5052ZM24.4627 26.5455V36H23.5994V26.5455H24.4627ZM26.4039 27.321V26.5455H33.2594V27.321H30.2633V36H29.4V27.321H26.4039ZM34.1123 36H33.2075L36.6468 26.5455H37.57L41.0093 36H40.1045L37.1407 27.6673H37.0761L34.1123 36ZM34.7632 32.3761H39.4536V33.1516H34.7632V32.3761ZM42.6297 36V26.5455H43.493V35.2244H47.9987V36H42.6297ZM53.5985 26.5455H54.5956L58.0257 34.7812H58.1088L61.5388 26.5455H62.536V36H61.7235V28.369H61.6496L58.4596 36H57.6748L54.4848 28.369H54.411V36H53.5985V26.5455ZM65.0635 36H64.1586L67.5979 26.5455H68.5212L71.9605 36H71.0557L68.0919 27.6673H68.0273L65.0635 36ZM65.7144 32.3761H70.4047V33.1516H65.7144V32.3761ZM73.5809 36V26.5455H76.6324C77.3033 26.5455 77.8634 26.667 78.3128 26.9102C78.7652 27.1502 79.1053 27.4841 79.333 27.9119C79.5638 28.3366 79.6792 28.8245 79.6792 29.3754C79.6792 29.9263 79.5638 30.4125 79.333 30.8342C79.1053 31.2558 78.7667 31.5851 78.3174 31.8221C77.868 32.0591 77.311 32.1776 76.6462 32.1776H74.0471V31.3881H76.6231C77.1156 31.3881 77.5249 31.3066 77.8511 31.1435C78.1804 30.9804 78.4251 30.748 78.5851 30.4464C78.7483 30.1448 78.8298 29.7878 78.8298 29.3754C78.8298 28.9629 78.7483 28.6029 78.5851 28.2951C78.422 27.9843 78.1758 27.7442 77.8465 27.5749C77.5203 27.4057 77.1079 27.321 76.6093 27.321H74.4442V36H73.5809ZM77.7496 31.7344L80.0763 36H79.0791L76.7755 31.7344H77.7496ZM81.782 36V26.5455H82.6453V31.6374H82.7284L87.3449 26.5455H88.4806L84.4411 30.9173L88.4621 36H87.4095L83.9056 31.5174L82.6453 32.93V36H81.782ZM90.1102 36V26.5455H95.5945V27.321H90.9735V30.8803H95.3037V31.6559H90.9735V35.2244H95.6869V36H90.1102ZM97.2565 27.321V26.5455H104.112V27.321H101.116V36H100.253V27.321H97.2565ZM106.919 26.5455V36H106.055V26.5455H106.919ZM116.796 26.5455V36H115.956L110.37 28.0827H110.296V36H109.432V26.5455H110.268L115.872 34.4719H115.946V26.5455H116.796ZM125.851 29.5C125.765 29.1861 125.639 28.8922 125.472 28.6183C125.306 28.3413 125.1 28.0997 124.854 27.8935C124.611 27.6842 124.329 27.5211 124.009 27.4041C123.692 27.2872 123.338 27.2287 122.947 27.2287C122.332 27.2287 121.781 27.3887 121.294 27.7088C120.808 28.0289 120.424 28.4905 120.14 29.0938C119.86 29.697 119.72 30.4233 119.72 31.2727C119.72 32.1191 119.862 32.8439 120.145 33.4471C120.428 34.0503 120.816 34.5135 121.308 34.8366C121.804 35.1567 122.37 35.3168 123.007 35.3168C123.589 35.3168 124.103 35.1875 124.549 34.929C124.995 34.6705 125.343 34.3011 125.592 33.821C125.845 33.3409 125.968 32.77 125.962 32.1083L126.239 32.196H123.21V31.4205H126.802V32.196C126.802 33.0024 126.639 33.6995 126.313 34.2873C125.986 34.8751 125.539 35.3291 124.969 35.6491C124.4 35.9692 123.746 36.1293 123.007 36.1293C122.182 36.1293 121.461 35.9308 120.842 35.5337C120.223 35.1336 119.742 34.5704 119.397 33.8441C119.055 33.1147 118.885 32.2576 118.885 31.2727C118.885 30.531 118.983 29.8616 119.18 29.2646C119.377 28.6675 119.656 28.1566 120.016 27.7319C120.379 27.3072 120.808 26.9825 121.304 26.7578C121.799 26.5301 122.347 26.4162 122.947 26.4162C123.464 26.4162 123.937 26.4978 124.364 26.6609C124.795 26.824 125.174 27.0487 125.5 27.3349C125.829 27.618 126.099 27.9458 126.308 28.3182C126.52 28.6875 126.663 29.0814 126.737 29.5H125.851ZM132.615 36H131.71L135.15 26.5455H136.073L139.512 36H138.607L135.644 27.6673H135.579L132.615 36ZM133.266 32.3761H137.956V33.1516H133.266V32.3761ZM147.23 29.5C147.144 29.1861 147.017 28.8922 146.851 28.6183C146.685 28.3413 146.479 28.0997 146.233 27.8935C145.99 27.6842 145.708 27.5211 145.388 27.4041C145.071 27.2872 144.717 27.2287 144.326 27.2287C143.711 27.2287 143.16 27.3887 142.673 27.7088C142.187 28.0289 141.802 28.4905 141.519 29.0938C141.239 29.697 141.099 30.4233 141.099 31.2727C141.099 32.1191 141.241 32.8439 141.524 33.4471C141.807 34.0503 142.195 34.5135 142.687 34.8366C143.183 35.1567 143.749 35.3168 144.386 35.3168C144.968 35.3168 145.482 35.1875 145.928 34.929C146.374 34.6705 146.722 34.3011 146.971 33.821C147.224 33.3409 147.347 32.77 147.341 32.1083L147.618 32.196H144.589V31.4205H148.181V32.196C148.181 33.0024 148.018 33.6995 147.691 34.2873C147.365 34.8751 146.917 35.3291 146.348 35.6491C145.779 35.9692 145.125 36.1293 144.386 36.1293C143.561 36.1293 142.84 35.9308 142.221 35.5337C141.602 35.1336 141.121 34.5704 140.776 33.8441C140.434 33.1147 140.264 32.2576 140.264 31.2727C140.264 30.531 140.362 29.8616 140.559 29.2646C140.756 28.6675 141.035 28.1566 141.395 27.7319C141.758 27.3072 142.187 26.9825 142.683 26.7578C143.178 26.5301 143.726 26.4162 144.326 26.4162C144.843 26.4162 145.316 26.4978 145.743 26.6609C146.174 26.824 146.553 27.0487 146.879 27.3349C147.208 27.618 147.478 27.9458 147.687 28.3182C147.899 28.6875 148.042 29.0814 148.116 29.5H147.23ZM150.324 36V26.5455H155.808V27.321H151.187V30.8803H155.518V31.6559H151.187V35.2244H155.901V36H150.324ZM165.406 26.5455V36H164.566L158.98 28.0827H158.906V36H158.043V26.5455H158.878L164.483 34.4719H164.557V26.5455H165.406ZM175.325 29.5H174.457C174.392 29.1768 174.275 28.8783 174.106 28.6044C173.94 28.3274 173.73 28.0858 173.478 27.8796C173.226 27.6734 172.939 27.5134 172.619 27.3995C172.299 27.2856 171.953 27.2287 171.581 27.2287C170.984 27.2287 170.439 27.3841 169.946 27.695C169.457 28.0058 169.065 28.4628 168.769 29.0661C168.477 29.6662 168.331 30.4018 168.331 31.2727C168.331 32.1499 168.477 32.8885 168.769 33.4886C169.065 34.0888 169.457 34.5443 169.946 34.8551C170.439 35.1629 170.984 35.3168 171.581 35.3168C171.953 35.3168 172.299 35.2598 172.619 35.146C172.939 35.0321 173.226 34.8736 173.478 34.6705C173.73 34.4643 173.94 34.2227 174.106 33.9457C174.275 33.6687 174.392 33.3686 174.457 33.0455H175.325C175.248 33.4794 175.103 33.8841 174.891 34.2596C174.681 34.632 174.414 34.9582 174.087 35.2383C173.764 35.5183 173.392 35.7369 172.97 35.8938C172.549 36.0508 172.085 36.1293 171.581 36.1293C170.787 36.1293 170.082 35.9308 169.466 35.5337C168.851 35.1336 168.368 34.5704 168.017 33.8441C167.669 33.1178 167.495 32.2607 167.495 31.2727C167.495 30.2848 167.669 29.4277 168.017 28.7013C168.368 27.975 168.851 27.4134 169.466 27.0163C170.082 26.6162 170.787 26.4162 171.581 26.4162C172.085 26.4162 172.549 26.4947 172.97 26.6516C173.392 26.8055 173.764 27.024 174.087 27.3072C174.414 27.5872 174.681 27.9135 174.891 28.2859C175.103 28.6583 175.248 29.063 175.325 29.5ZM176.466 26.5455H177.463L180.265 31.0327H180.348L183.151 26.5455H184.148L180.736 31.9052V36H179.878V31.9052L176.466 26.5455Z" fill="white"/>
<path d="M95.4434 16.6301H76.7031V20.0203H95.4434V16.6301Z" fill="white"/>
<path d="M95.4434 0.981445H76.7031V4.37172H95.4434V0.981445Z" fill="white"/>
<path d="M95.4434 8.80374H76.7031V12.198H95.4434V8.80374Z" fill="white"/>
<path d="M3.73763 14.4123C3.73763 13.2701 4.59566 12.3207 5.69884 12.2063H6.65374V8.81602H5.73245C3.53795 8.88426 1.65978 10.2633 0.843268 12.2063C0.556599 12.8847 0.398438 13.6335 0.398438 14.4123V20.0186H19.1406V16.6283H3.73763V14.4123V14.4123ZM15.7975 6.6C15.7975 7.74213 14.9513 8.68956 13.8402 8.80397H12.8853V12.2063H13.6168C13.6504 12.2063 13.684 12.2063 13.7157 12.1962H13.8066C15.2756 12.1501 16.61 11.5058 17.5689 10.5001C18.0473 10.0123 18.4269 9.43827 18.6938 8.80397C18.9844 8.12552 19.1406 7.38082 19.1406 6.6C19.1406 3.50078 16.6694 0.991699 13.6168 0.991699H0.398438V4.38197H13.6148C14.8287 4.38197 15.7975 5.37958 15.7975 6.6V6.6Z" fill="white"/>
<path d="M35.0445 0.991699H21.8281V4.38197H35.0426C36.2565 4.38197 37.2272 5.37958 37.2272 6.6C37.2272 7.74213 36.381 8.68956 35.266 8.80397H34.3111V12.2063H35.0426C35.0781 12.2063 35.1118 12.2063 35.1454 12.1962H35.2324C36.7013 12.1501 38.0397 11.5058 38.9986 10.5001C39.477 10.0123 39.8546 9.43827 40.1235 8.80397C40.4141 8.12552 40.5683 7.38082 40.5683 6.6C40.5683 3.50078 38.0971 0.991699 35.0445 0.991699V0.991699ZM25.1693 16.6283V14.4123C25.1693 13.2701 26.0273 12.3207 27.1305 12.2063H28.0815V8.81602H27.1621C24.9676 8.88426 23.0855 10.2633 22.273 12.2063C21.9823 12.8847 21.8281 13.6335 21.8281 14.4123V20.0186H40.5683V16.6283H25.1693V16.6283Z" fill="white"/>
<path d="M59.3646 10.4999C59.3646 13.8801 62.0712 16.6281 65.4005 16.6281H74.7755V20.0203H65.4005C60.2226 20.0203 56.0234 15.7589 56.0234 10.5019C56.0234 5.24487 60.2207 0.981445 65.4005 0.981445H74.7755V4.37171H65.4005C62.0712 4.37171 59.3646 7.11966 59.3646 10.4999Z" fill="white"/>
<path d="M116.141 0.981445V20.0203L112.79 17.3968L100.742 7.96873V20.0203H97.3906V1.04969L100.742 3.67319L112.79 13.1013V0.981445H116.141Z" fill="white"/>
<path d="M136.811 0.997559V4.39184H129.112V20.0264H125.769V4.39184H118.07V0.997559H136.813H136.811Z" fill="white"/>
<path d="M157.496 0.981445V10.4999C157.496 15.7569 153.299 20.0183 148.119 20.0183C142.939 20.0183 138.742 15.7569 138.742 10.4999V0.981445H142.083V10.4999C142.083 13.8801 144.79 16.6281 148.119 16.6281C151.449 16.6281 154.155 13.8801 154.155 10.4999V0.981445H157.496Z" fill="white"/>
<path d="M166.61 11.2246H166.616C167.13 11.1664 167.618 11.0219 168.075 10.8071C169.827 10.0042 171.039 8.2057 171.039 6.12416C171.039 4.71105 170.469 3.42239 169.554 2.48499C168.645 1.55764 167.387 0.977539 165.979 0.977539H157.5V4.37383H165.979C166.575 4.37383 166.966 4.65485 167.185 4.87364C167.375 5.07236 167.7 5.50392 167.7 6.12416C167.7 6.81266 167.31 7.43892 166.683 7.71994C166.462 7.83034 166.227 7.87651 165.979 7.87651H161.209L167.269 20.0205H171.023L169.319 16.6161L166.612 11.2246H166.61Z" fill="white"/>
<path d="M189.607 0.94751V0.959553L182.348 10.5021L182.336 10.5141L181.935 11.034V20.0105H178.583V11.0882L178.139 10.5121L178.127 10.5001L170.867 0.94751H175.088L180.244 7.73006L185.4 0.94751H189.609H189.607ZM170.867 19.9985H170.913L170.867 20.0547V19.9985ZM189.576 19.9985H189.609V20.0446L189.576 19.9985Z" fill="white"/>
</svg>
